{
  "fileTypes": [
    "p",
    "w",
    "i",
    "cls",
    "f"
  ],
  "name": "OpenEdge ABL",
  "patterns": [
    {
      "include": "#procedure-definition"
    },
    {
      "include": "#statements"
    }
  ],
  "repository": {
    "procedure-definition": {
      "begin": "(?i)\\b(proce|proced|procedu|procedur|procedure)\\b\\s+('[\\w\\.-]*':U|'[\\w\\.-]*'|[\\w\\.-]*)?(\\s+(EXTERNAL)\\s+(\")([\\w\\.-]*)(\"))?",
      "beginCaptures": {
        "1": {
          "name": "keyword.other.abl"
        },
        "2": {
          "name": "entity.name.function.abl"
        },
        "4": {
          "name": "keyword.other.abl"
        },
        "5": {
          "name": "punctuation.definition.string.begin.abl"
        },
        "6": {
          "name": "string.double.complex.abl"
        },
        "7": {
          "name": "punctuation.definition.string.begin.abl"
        }
      },
      "end": "(?=\\.)",
      "name": "meta.procedure.abl",
      "patterns": [
        {
          "begin": ":",
          "end": "(?i)(end\\s*procedure|end)",
          "endCaptures": {
            "1": {
              "name": "keyword.other.abl"
            }
          },
          "name": "meta.procedure.body.abl",
          "patterns": [
            {
              "include": "#code-block"
            }
          ]
        }
      ]
    },
    "statements": {
      "patterns": [
        {
          "include": "#string"
        },
        {
          "include": "#singlelinecomment"
        },
        {
          "include": "#multilinecomment"
        },
        {
          "include": "#declarations"
        },
        {
          "include": "#numeric"
        },
        {
          "include": "#constant"
        },
        {
          "include": "#operator"
        },
        {
          "include": "#analyze-suspend-resume"
        },
        {
          "include": "#global-scoped-define"
        },
        {
          "match": "(?i)(\\&[\\w-]*)|({\\&[\\w-]*})|(&window-system|&text-height|&line-number|&batch-mode|&file-name|&undefine|&sequence|&message|defined|&elseif|&scoped|&global|&opsys|&endif|&else|&scop|&then|&glob|&if)",
          "name": "storage.type.function.abl"
        },
        {
          "include": "#primitive-type"
        },
        {
          "include": "#method-call"
        },
        {
          "include": "#function-call"
        },
        {
          "include": "#code-block"
        },
        {
          "include": "#keywords"
        },
        {
          "include": "#variable-name"
        },
        {
          "include": "#array-literal"
        },
        {
          "include": "#punctuation-semicolon"
        }
      ]
    },
    "declarations": {
      "patterns": [
        {
          "include": "#define"
        }
      ]
    },
    "code-block": {
      "patterns": [
        {
          "include": "#singlelinecomment"
        },
        {
          "include": "#multilinecomment"
        },
        {
          "include": "#string"
        },
        {
          "include": "#numeric"
        },
        {
          "include": "#constant"
        },
        {
          "include": "#operator"
        },
        {
          "include": "#include-file"
        },
        {
          "include": "#define"
        },
        {
          "include": "#do-block"
        },
        {
          "include": "#keywords"
        },
        {
          "include": "#variable-name"
        },
        {
          "include": "#method-call"
        },
        {
          "include": "#function-call"
        }
      ]
    },
    "define": {
      "begin": "(?i)\\b(def|define)\\s+",
      "beginCaptures": {
        "1": {
          "name": "keyword.other.abl"
        }
      },
      "end": "(?=\\.)",
      "comment": "Let's assume define can't have '.' inside",
      "name": "meta.define.abl",
      "patterns": [
        {
          "begin": "(?i)\\b(new|shared|var|vari|varia|variab|variabl|variable|private|protected|public|static|serializable|non-serializable)\\b",
          "end": "(?=\\.)",
          "comment": "https://documentation.progress.com/output/ua/OpenEdge_latest/index.html#page/dvref%2Fdefine-variable-statement.html%23",
          "name": "meta.define.variable.abl",
          "beginCaptures": {
            "1": {
              "name": "keyword.other.abl"
            }
          },
          "patterns": [
            {
              "include": "#string"
            },
            {
              "include": "#primitive-type"
            },
            {
              "include": "#numeric"
            },
            {
              "include": "#constant"
            },
            {
              "include": "#keywords"
            },
            {
              "include": "#variable-name"
            }
          ]
        },
        {
          "match": "(?i)(?<=^|\\s)(input|output|input-output|return)(?=\\s)([^\\.])",
          "comment": "https://documentation.progress.com/output/ua/OpenEdge_latest/index.html#page/dvref%2Fdefine-variable-statement.html%23",
          "name": "meta.define.parameter.abl",
          "captures": {
            "1": {
              "name": "keyword.other.abl"
            },
            "2": {
              "patterns": [
                {
                  "include": "#string"
                },
                {
                  "include": "#primitive-type"
                },
                {
                  "include": "#numeric"
                },
                {
                  "include": "#constant"
                },
                {
                  "include": "#keywords"
                },
                {
                  "include": "#parameter-name"
                }
              ]
            }
          }
        },
        {
          "match": "(?i)\\b(stream)\\b([^\\.]*)",
          "comment": "https://documentation.progress.com/output/ua/OpenEdge_latest/index.html#page/dvref%2Fdefine-stream-statement.html%23",
          "name": "meta.define.stream.abl",
          "captures": {
            "1": {
              "name": "keyword.other.abl"
            },
            "2": {
              "patterns": [
                {
                  "include": "#variable-name"
                }
              ]
            }
          }
        },
        {
          "include": "#string"
        },
        {
          "include": "#primitive-type"
        },
        {
          "include": "#numeric"
        },
        {
          "include": "#constant"
        },
        {
          "include": "#keywords"
        },
        {
          "include": "#singlelinecomment"
        },
        {
          "include": "#multilinecomment"
        }
      ]
    },
    "do-block": {
      "begin": "(?i)\\b(do)\\b",
      "beginCaptures": {
        "1": {
          "name": "keyword.other.abl"
        }
      },
      "end": "(?=\\.)",
      "name": "meta.do.abl",
      "patterns": [
        {
          "begin": "(?i)\\b(while)\\b",
          "end": "(?=(?::))",
          "beginCaptures": {
            "1": {
              "name": "keyword.other.abl"
            }
          },
          "name": "meta.do.while.abl",
          "patterns": [
            {
              "include": "#statements"
            }
          ]
        },
        {
          "include": "#statements"
        },
        {
          "begin": ":",
          "end": "(?i)(end\\s*do|end)",
          "endCaptures": {
            "1": {
              "name": "keyword.other.abl"
            }
          },
          "name": "meta.do.body.abl",
          "patterns": [
            {
              "include": "#code-block"
            }
          ]
        }
      ]
    },
    "analyze-suspend-resume": {
      "begin": "(?i)(\\&analyze-suspend|\\&analyze-resume)\\s*",
      "end": "(?=(?://|/\\*))|$",
      "name": "comment.preprocessor.analyze-suspend.abl"
    },
    "global-scoped-define": {
      "begin": "(?i)(\\&scoped-define|\\&global-define)\\s*([\\.\\w\\\\\/-]*)\\s*",
      "beginCaptures": {
        "1": {
          "name": "keyword.other.abl"
        },
        "2": {
          "name": "entity.name.function.preprocessor.abl"
        }
      },
      "end": "(?=(?://|/\\*))|$",
      "name": "meta.preprocessor.define.abl",
      "patterns": [
        {
          "include": "#string"
        }
      ]
    },
    "method-call": {
      "match": "(?<=\\.|:)(\\w|-)+",
      "name": "support.function.abl"
    },
    "function-call": {
      "name": "meta.function-call.abl",
      "begin": "([\\w-]+)\\s*(\\()",
      "end": "(\\))",
      "beginCaptures": {
        "1": {
          "name": "entity.name.function.abl"
        },
        "2": {
          "name": "meta.brace.round.js"
        }
      },
      "endCaptures": {
        "1": {
          "name": "meta.brace.round.js"
        }
      },
      "patterns": [
        {
          "include": "#expression"
        },
        {
          "include": "#punctuation-comma"
        }
      ]
    },
    "variable-name": {
      "match": "(?<=^|\\s|\\[|\\()([\\w-]+)",
      "name": "variable.other.abl"
    },
    "array-literal": {
      "name": "meta.array.literal.abl",
      "begin": "\\[",
      "beginCaptures": {
        "0": {
          "name": "meta.brace.square.abl"
        }
      },
      "end": "\\]",
      "endCaptures": {
        "0": {
          "name": "meta.brace.square.abl"
        }
      },
      "patterns": [
        {
          "include": "#expression"
        },
        {
          "include": "#punctuation-comma"
        }
      ]
    },
    "expression": {
      "patterns": [
        {
          "include": "#string"
        },
        {
          "include": "#constant"
        },
        {
          "include": "#numeric"
        },
        {
          "include": "#variable-name"
        }
      ]
    },
    "parameter-name": {
      "match": "(?<=^|\\s)(\\w|-)+(?=\\s)",
      "name": "variable.parameter.abl"
    },
    "include-file": {
      "begin": "({)\\s*",
      "beginCaptures": {
        "1": {
          "name": "punctuation.section.abl"
        }
      },
      "end": "\\s*(})",
      "endCaptures": {
        "1": {
          "name": "punctuation.section.abl"
        }
      },
      "name": "meta.include.abl",
      "patterns": [
        {
          "match": "([^}])\\s*",
          "name": "string.unquoted.include-argument.abl"
        }
      ],
      "comment": "https://documentation.progress.com/output/ua/OpenEdge_latest/index.html#page/dvref%2F%257B-%257D-include-file-reference.html%23"
    },
    "argument-reference": {
      "comment": "https://documentation.progress.com/output/ua/OpenEdge_latest/index.html#page/dvref%2F%257B-%257D-argument-reference.html%23"
    },
    "singlelinecomment": {
      "match": "//.*$",
      "name": "comment.source.abl"
    },
    "multilinecomment": {
      "begin": "(?<!=)\\/\\*",
      "contentName": "comment",
      "end": "\\*/",
      "name": "comment.block.source.abl",
      "patterns": [
        {
          "include": "#multilinecomment",
          "name": "comment.block.source.abl"
        }
      ]
    },
    "string": {
      "patterns": [
        {
          "include": "#singlequotedstring"
        },
        {
          "include": "#doublequotedstring"
        }
      ]
    },
    "singlequotedstring": {
      "begin": "'",
      "beginCaptures": {
        "0": {
          "name": "punctuation.definition.string.begin.abl"
        }
      },
      "end": "'",
      "endCaptures": {
        "0": {
          "name": "punctuation.definition.string.end.abl"
        }
      },
      "name": "string.single.complex.abl",
      "patterns": [
        {
          "match": "~.",
          "name": "constant.character.escape.abl"
        }
      ]
    },
    "doublequotedstring": {
      "begin": "\"",
      "beginCaptures": {
        "0": {
          "name": "punctuation.definition.string.begin.abl"
        }
      },
      "end": "\"",
      "endCaptures": {
        "0": {
          "name": "punctuation.definition.string.end.abl"
        }
      },
      "name": "string.double.complex.abl",
      "patterns": [
        {
          "match": "~.",
          "name": "constant.character.escape.abl"
        }
      ]
    },
    "primitive-type": {
      "match": "(?i)(?<=^|\\s)(blob|character|characte|charact|charac|chara|char|clob|com-handle|date|datetime|datetime-tz|decimal|decima|decim|deci|dec|handle|int64|integer|intege|integ|inte|int|logical|logica|logic|logi|log|longchar|longcha|longch|memptr|raw|recid|rowid|widget-handle)(?![=\\w-])",
      "name": "storage.type.abl",
      "comment": "https://documentation.progress.com/output/ua/OpenEdge_latest/index.html#page/dvref/data-types.html"
    },
    "numeric": {
      "match": "(?<![\\w-])((0(x|X)[0-9a-fA-F]+)|([0-9]+(\\.[0-9]+)?))",
      "name": "constant.numeric.source.abl"
    },
    "constant": {
      "match": "(?i)(?<=^|\\s)(true|false|yes|no)(?!\\w|-)",
      "name": "constant.language.source.abl"
    },
    "punctuation-comma": {
      "name": "punctuation.separator.comma.abl",
      "match": ","
    },
    "punctuation-semicolon": {
      "name": "punctuation.terminator.abl",
      "match": "\\."
    },
    "operator": {
      "patterns": [
        {
          "include": "#operator1"
        },
        {
          "include": "#operator2"
        }
      ]
    },
    "operator1": {
      "match": "(?i)(?<=^|\\s)(or|and|not|is|eq|ge|ne|le|lt|gt)(?=\\s|\\.)",
      "name": "keyword.operator.source.abl"
    },
    "operator2": {
      "match": "(?i)(<=|<>|>=|=|\\+| - |/|<|>|,)",
      "name": "keyword.operator.source.abl"
    },
    "keywords": {
      "match": "(?i)(?<![\\w-])(abs|abso|absol|absolu|absolut|absolute|abstract|accelerator|accept-changes|accept-row-changes|accum|accumu|accumul|accumula|accumulat|accumulate|across|active|active-form|active-window|actor|add|add-buffer|add-calc-col|add-calc-colu|add-calc-colum|add-calc-column|add-columns-from|add-events-proc|add-events-proce|add-events-proced|add-events-procedu|add-events-procedur|add-events-procedure|add-fields-from|add-first|add-header-entry|add-index-field|add-interval|add-last|add-like-col|add-like-colu|add-like-colum|add-like-column|add-like-field|add-like-index|add-new-field|add-new-index|add-parent-id-relation|add-rel|add-rela|add-relat|add-relati|add-relatio|add-relation|add-schema-location|add-source-buffer|add-super-proc|add-super-proce|add-super-proced|add-super-procedu|add-super-procedur|add-super-procedure|adm-data|advise|after-buffer|after-rowid|after-table|alert-box|alias|all|allow-column-searching|allow-replication|alter|alternate-key|always-on-top|ambig|ambigu|ambiguo|ambiguou|ambiguous|and|ansi-only|any|anywhere|append|append-child|appl-alert|appl-alert-|appl-alert-b|appl-alert-bo|appl-alert-box|appl-alert-boxe|appl-alert-boxes|appl-context-id|application|apply|apply-callback|appserver-info|appserver-password|appserver-userid|array-m|array-me|array-mes|array-mess|array-messa|array-messag|array-message|as|as-cursor|asc|asce|ascen|ascend|ascendi|ascendin|ascending|ask-overwrite|assembly|assign|async-request-count|async-request-handle|asynchronous|at|attach|attach-data-source|attached-pairlist|attachment|attr|attr-|attr-s|attr-sp|attr-spa|attr-spac|attr-space|attribute-names|attribute-type|audit-control|audit-enabled|audit-event-context|audit-policy|authentication-failed|authorization|auto-comp|auto-compl|auto-comple|auto-complet|auto-completi|auto-completio|auto-completion|auto-delete|auto-delete-xml|auto-end-key|auto-endkey|auto-go|auto-ind|auto-inde|auto-inden|auto-indent|auto-resize|auto-ret|auto-retu|auto-retur|auto-return|auto-synchronize|auto-val|auto-vali|auto-valid|auto-valida|auto-validat|auto-validate|auto-z|auto-za|auto-zap|automatic|avail|availa|availab|availabl|available|available-formats|ave|aver|avera|averag|average|avg|back|backg|backgr|backgro|backgrou|backgroun|background|backward|backwards|base-ade|base-key|base64|base64-decode|base64-encode|basic-logging|batch|batch-mode|batch-size|before-buffer|before-h|before-hi|before-hid|before-hide|before-rowid|before-table|begin-event-group|begins|bell|between|bgc|bgco|bgcol|bgcolo|bgcolor|big-endian|binary|bind|bind-where|blank|blob|block-iteration-display|block-lev|block-leve|block-level|border-b|border-bo|border-bot|border-bott|border-botto|border-bottom|border-bottom-c|border-bottom-ch|border-bottom-cha|border-bottom-char|border-bottom-chars|border-bottom-p|border-bottom-pi|border-bottom-pix|border-bottom-pixe|border-bottom-pixel|border-bottom-pixels|border-l|border-le|border-lef|border-left|border-left-c|border-left-ch|border-left-cha|border-left-char|border-left-chars|border-left-p|border-left-pi|border-left-pix|border-left-pixe|border-left-pixel|border-left-pixels|border-r|border-ri|border-rig|border-righ|border-right|border-right-c|border-right-ch|border-right-cha|border-right-char|border-right-chars|border-right-p|border-right-pi|border-right-pix|border-right-pixe|border-right-pixel|border-right-pixels|border-t|border-to|border-top|border-top-c|border-top-ch|border-top-cha|border-top-char|border-top-chars|border-top-p|border-top-pi|border-top-pix|border-top-pixe|border-top-pixel|border-top-pixels|both|bottom|box|box-select|box-selecta|box-selectab|box-selectabl|box-selectable|break|browse|browse-column-data-types|browse-column-formats|browse-column-labels|browse-header|btos|buffer|buffer-chars|buffer-comp|buffer-compa|buffer-compar|buffer-compare|buffer-copy|buffer-create|buffer-delete|buffer-field|buffer-group-id|buffer-group-name|buffer-handle|buffer-lines|buffer-n|buffer-na|buffer-nam|buffer-name|buffer-partition-id|buffer-releas|buffer-release|buffer-tenant-id|buffer-tenant-name|buffer-validate|buffer-value|button|buttons|by|by-pointer|by-reference|by-value|by-variant-point|by-variant-pointe|by-variant-pointer|byte|bytes-read|bytes-written|cache|cache-size|call|call-name|call-type|can-crea|can-creat|can-create|can-dele|can-delet|can-delete|can-do|can-do-domain-support|can-find|can-query|can-read|can-set|can-writ|can-write|cancel-break|cancel-button|cancel-requests|cancel-requests-after|cancelled|caps|careful-paint|case|case-sen|case-sens|case-sensi|case-sensit|case-sensiti|case-sensitiv|case-sensitive|cast|catch|cdecl|center|centere|centered|chained|char|chara|charac|charact|characte|character|character_length|charset|check|check-mem-stomp|checked|child-buffer|child-num|choose|chr|class|class-type|clear|clear-appl-context|clear-log|clear-select|clear-selecti|clear-selectio|clear-selection|clear-sort-arrow|clear-sort-arrows|client-connection-id|client-principal|client-tty|client-type|client-workstation|clipboard|clob|clone-node|close|close-log|code|codebase-locator|codepage|codepage-convert|col|col-of|collate|colon|colon-align|colon-aligne|colon-aligned|color|color-table|column-bgc|column-bgco|column-bgcol|column-bgcolo|column-bgcolor|column-codepage|column-dcolor|column-fgc|column-fgco|column-fgcol|column-fgcolo|column-fgcolor|column-font|column-lab|column-labe|column-label|column-label-bgc|column-label-bgco|column-label-bgcol|column-label-bgcolo|column-label-bgcolor|column-label-dcolor|column-label-fgc|column-label-fgco|column-label-fgcol|column-label-fgcolo|column-label-fgcolor|column-label-font|column-label-height-c|column-label-height-ch|column-label-height-cha|column-label-height-char|column-label-height-chars|column-label-height-p|column-label-height-pi|column-label-height-pix|column-label-height-pixe|column-label-height-pixel|column-label-height-pixels|column-movable|column-of|column-pfc|column-pfco|column-pfcol|column-pfcolo|column-pfcolor|column-read-only|column-resizable|column-sc|column-scr|column-scro|column-scrol|column-scroll|column-scrolli|column-scrollin|column-scrolling|column|columns|com-handle|com-self|combo-box|command|compare|compares|compile|compiler|complete|component-handle|component-self|config-name|connect|connected|constrained|constructor|contains|contents|context|context-help|context-help-file|context-help-id|context-pop|context-popu|context-popup|control|control-box|control-cont|control-conta|control-contai|control-contain|control-containe|control-container|control-fram|control-frame|convert|convert-3d|convert-3d-|convert-3d-c|convert-3d-co|convert-3d-col|convert-3d-colo|convert-3d-color|convert-3d-colors|convert-to-offs|convert-to-offse|convert-to-offset|copy-dataset|copy-lob|copy-sax-attributes|copy-temp-table|count|count-of|coverage|cpcase|cpcoll|cpint|cpinte|cpinter|cpintern|cpinterna|cpinternal|cplog|cpprint|cprcodein|cprcodeout|cpstream|cpterm|crc-val|crc-valu|crc-value|create|create-like|create-like-sequential|create-node|create-node-namespace|create-on-add|create-result-list-entry|create-test-file|ctos|current|current-changed|current-column|current-env|current-envi|current-envir|current-enviro|current-environ|current-environm|current-environme|current-environmen|current-environment|current-iteration|current-lang|current-langu|current-langua|current-languag|current-language|current-query|current-request-info|current-response-info|current-result-row|current-row-modified|current-value|current-window|current_date|curs|curso|cursor|cursor-char|cursor-line|cursor-offset|data-b|data-bi|data-bin|data-bind|data-entry-ret|data-entry-retu|data-entry-retur|data-entry-return|data-rel|data-rela|data-relat|data-relati|data-relatio|data-relation|data-source|data-source-complete-map|data-source-modified|data-source-rowid|data-t|data-ty|data-typ|data-type|database|dataservers|dataset|dataset-handle|date|date-f|date-fo|date-for|date-form|date-forma|date-format|datetime|datetime-tz|day|db-context|db-list|db-references|db-remote-host|dbcodepage|dbcollation|dbname|dbparam|dbrest|dbrestr|dbrestri|dbrestric|dbrestrict|dbrestricti|dbrestrictio|dbrestriction|dbrestrictions|dbtaskid|dbtype|dbvers|dbversi|dbversio|dbversion|dcolor|dde|dde-error|dde-i|dde-id|dde-item|dde-name|dde-topic|deblank|debu|debug|debug-alert|debug-list|debug-set-tenant|debugger|dec|deci|decim|decima|decimal|decimals|declare|declare-namespace|decrypt|default|default-buffer-handle|default-but|default-butt|default-butto|default-button|default-commit|default-ex|default-ext|default-exte|default-exten|default-extens|default-extensi|default-extensio|default-extension|default-noxl|default-noxla|default-noxlat|default-noxlate|default-string|default-value|default-window|defer-lob-fetch|def|defi|defin|define|define-user-event-manager|defined|delegate|delete|delete-char|delete-current-row|delete-header-entry|delete-line|delete-node|delete-result-list-entry|delete-selected-row|delete-selected-rows|delimiter|desc|desce|descen|descend|descendi|descendin|descending|descript|descripti|descriptio|description|deselect-focused-row|deselect-rows|deselect-selected-row|destructor|detach|detach-data-source|dialog-box|dialog-help|dict|dicti|dictio|diction|dictiona|dictionar|dictionary|dir|directory|disable|disable-auto-zap|disable-connections|disable-dump-triggers|disable-load-triggers|disabled|discon|disconn|disconne|disconnec|disconnect|disp|displ|displa|display|display-message|display-timezone|display-t|display-ty|display-typ|display-type|distinct|dll-call-type|do|domain-description|domain-name|domain-type|dos|dotnet-clr-loaded|double|down|drag-enabled|drop|drop-down|drop-down-list|drop-target|dslog-manager|dump|dump-logging-now|dynamic|dynamic-cast|dynamic-current-value|dynamic-enum|dynamic-func|dynamic-funct|dynamic-functi|dynamic-functio|dynamic-function|dynamic-invoke|dynamic-new|dynamic-next-value|dynamic-property|each|echo|edge|edge-c|edge-ch|edge-cha|edge-char|edge-chars|edge-p|edge-pi|edge-pix|edge-pixe|edge-pixel|edge-pixels|edit-can-paste|edit-can-undo|edit-clear|edit-copy|edit-cut|edit-paste|edit-undo|editing|editor|else|empty|empty-dataset|empty-temp-table|enable|enable-connections|enabled|encode|encoding|encrypt|encrypt-audit-mac-key|encryption-salt|end|end-document|end-element|end-event-group|end-file-drop|end-key|end-user-prompt|endkey|entered|entity-expansion-limit|entry|entry-types-list|enum|eq|error|error-col|error-colu|error-colum|error-column|error-object-detail|error-row|error-stack-trace|error-stat|error-statu|error-status|error-string|escape|etime|event|event-group-id|event-procedure|event-procedure-context|event-t|event-ty|event-typ|event-type|events|except|exclusive|exclusive-id|exclusive-l|exclusive-lo|exclusive-loc|exclusive-lock|exclusive-web|exclusive-web-|exclusive-web-u|exclusive-web-us|exclusive-web-use|exclusive-web-user|execute|execution-log|exists|exp|expand|expandable|expire|explicit|export|export-principal|extended|extent|external|extract|false|false-leaks|fetch|fetch-selected-row|fgc|fgco|fgcol|fgcolo|fgcolor|field|fields|file|file-access-d|file-access-da|file-access-dat|file-access-date|file-access-t|file-access-ti|file-access-tim|file-access-time|file-create-d|file-create-da|file-create-dat|file-create-date|file-create-t|file-create-ti|file-create-tim|file-create-time|file-info|file-infor|file-inform|file-informa|file-informat|file-informati|file-informatio|file-information|file-mod-d|file-mod-da|file-mod-dat|file-mod-date|file-mod-t|file-mod-ti|file-mod-tim|file-mod-time|file-name|file-off|file-offs|file-offse|file-offset|file-size|file-type|filename|fill|fill-in|fill-mode|fill-where-string|filled|filters|final|finally|find|find-by-rowid|find-case-sensitive|find-current|find-first|find-global|find-last|find-next-occurrence|find-prev-occurrence|find-select|find-unique|find-wrap-around|finder|firehose-cursor|first|first-async|first-async-|first-async-r|first-async-re|first-async-req|first-async-requ|first-async-reque|first-async-reques|first-async-request|first-buffer|first-child|first-column|first-data-source|first-dataset|first-form|first-object|first-of|first-proc|first-proce|first-proced|first-procedu|first-procedur|first-procedure|first-query|first-serv|first-serve|first-server|first-server-socket|first-socket|first-tab-i|first-tab-it|first-tab-ite|first-tab-item|fit-last-column|fix-codepage|fixed-only|flags|flat-button|float|focus|focused-row|focused-row-selected|font|font-table|for|force-file|fore|foreg|foregr|foregro|foregrou|foregroun|foreground|foreign-key-hidden|form-input|form-long-input|form|forma|format|formatte|formatted|forward-only|forward|forwards|fragmen|fragment|fram|frame|frame-col|frame-db|frame-down|frame-field|frame-file|frame-inde|frame-index|frame-line|frame-name|frame-row|frame-spa|frame-spac|frame-spaci|frame-spacin|frame-spacing|frame-val|frame-valu|frame-value|frame-x|frame-y|frequency|from|from-c|from-ch|from-cha|from-char|from-chars|from-cur|from-curr|from-curre|from-curren|from-current|from-p|from-pi|from-pix|from-pixe|from-pixel|from-pixels|fromnoreorder|full-height|full-height-c|full-height-ch|full-height-cha|full-height-char|full-height-chars|full-height-p|full-height-pi|full-height-pix|full-height-pixe|full-height-pixel|full-height-pixels|full-pathn|full-pathna|full-pathnam|full-pathname|full-width|full-width-|full-width-c|full-width-ch|full-width-cha|full-width-char|full-width-chars|full-width-p|full-width-pi|full-width-pix|full-width-pixe|full-width-pixel|full-width-pixels|function|function-call-type|gateway|gateways|ge|generate-md5|generate-pbe-key|generate-pbe-salt|generate-random-key|generate-uuid|get|get-attr-call-type|get-attribute|get-attribute-node|get-binary-data|get-bits|get-blue|get-blue-|get-blue-v|get-blue-va|get-blue-val|get-blue-valu|get-blue-value|get-browse-col|get-browse-colu|get-browse-colum|get-browse-column|get-buffer-handle|get-byte|get-byte-order|get-bytes|get-bytes-available|get-callback-proc-context|get-callback-proc-name|get-cgi-list|get-cgi-long-value|get-cgi-value|get-changes|get-child|get-child-rel|get-child-rela|get-child-relat|get-child-relati|get-child-relatio|get-child-relation|get-class|get-client|get-codepage|get-codepages|get-coll|get-colla|get-collat|get-collati|get-collatio|get-collation|get-collations|get-column|get-config-value|get-curr|get-curre|get-curren|get-current|get-dataset-buffer|get-db-client|get-dir|get-document-element|get-double|get-dropped-file|get-dynamic|get-effective-tenant-id|get-effective-tenant-name|get-error-column|get-error-row|get-file|get-file-name|get-file-offse|get-file-offset|get-firs|get-first|get-float|get-green|get-green-|get-green-v|get-green-va|get-green-val|get-green-valu|get-green-value|get-header-entr|get-header-entry|get-index-by-namespace-name|get-index-by-qname|get-int64|get-iteration|get-key-val|get-key-valu|get-key-value|get-last|get-localname-by-index|get-long|get-message|get-message-type|get-next|get-node|get-number|get-parent|get-pointer-value|get-prev|get-printers|get-property|get-qname-by-index|get-red|get-red-|get-red-v|get-red-va|get-red-val|get-red-valu|get-red-value|get-rel|get-rela|get-relat|get-relati|get-relatio|get-relation|get-repositioned-row|get-rgb|get-rgb-|get-rgb-v|get-rgb-va|get-rgb-val|get-rgb-valu|get-rgb-value|get-row|get-selected|get-selected-|get-selected-w|get-selected-wi|get-selected-wid|get-selected-widg|get-selected-widge|get-selected-widget|get-serialized|get-short|get-signature|get-size|get-socket-option|get-source-buffer|get-string|get-tab-item|get-text-height|get-text-height-c|get-text-height-ch|get-text-height-cha|get-text-height-char|get-text-height-chars|get-text-height-p|get-text-height-pi|get-text-height-pix|get-text-height-pixe|get-text-height-pixel|get-text-height-pixels|get-text-width|get-text-width-c|get-text-width-ch|get-text-width-cha|get-text-width-char|get-text-width-chars|get-text-width-p|get-text-width-pi|get-text-width-pix|get-text-width-pixe|get-text-width-pixel|get-text-width-pixels|get-top-buffer|get-type-by-index|get-type-by-namespace-name|get-type-by-qname|get-unsigned-long|get-unsigned-short|get-uri-by-index|get-value-by-index|get-value-by-namespace-name|get-value-by-qname|get-wait|get-wait-|get-wait-s|get-wait-st|get-wait-sta|get-wait-stat|get-wait-state|getbyte|global|go-on|go-pend|go-pendi|go-pendin|go-pending|grant|grant-archive|graphic-e|graphic-ed|graphic-edg|graphic-edge|grayed|grid-factor-h|grid-factor-ho|grid-factor-hor|grid-factor-hori|grid-factor-horiz|grid-factor-horizo|grid-factor-horizon|grid-factor-horizont|grid-factor-horizonta|grid-factor-horizontal|grid-factor-v|grid-factor-ve|grid-factor-ver|grid-factor-vert|grid-factor-verti|grid-factor-vertic|grid-factor-vertica|grid-factor-vertical|grid-set|grid-snap|grid-unit-height|grid-unit-height-c|grid-unit-height-ch|grid-unit-height-cha|grid-unit-height-char|grid-unit-height-chars|grid-unit-height-p|grid-unit-height-pi|grid-unit-height-pix|grid-unit-height-pixe|grid-unit-height-pixel|grid-unit-height-pixels|grid-unit-width|grid-unit-width-c|grid-unit-width-ch|grid-unit-width-cha|grid-unit-width-char|grid-unit-width-chars|grid-unit-width-p|grid-unit-width-pi|grid-unit-width-pix|grid-unit-width-pixe|grid-unit-width-pixel|grid-unit-width-pixels|grid-visible|group|group-box|gt|guid|handle|handler|has-lobs|has-records|having|header|height|height-c|height-ch|height-cha|height-char|height-chars|height-p|height-pi|height-pix|height-pixe|height-pixel|height-pixels|help|help-con|help-cont|help-conte|help-contex|help-context|help-topic|helpfile-n|helpfile-na|helpfile-nam|helpfile-name|hex-decode|hex-encode|hidden|hide|hint|hori|horiz|horizo|horizon|horizont|horizonta|horizontal|host-byte-order|html-charset|html-end-of-line|html-end-of-page|html-frame-begin|html-frame-end|html-header-begin|html-header-end|html-title-begin|html-title-end|hwnd|icfparam|icfparame|icfparamet|icfparamete|icfparameter|icon|if|ignore-current-mod|ignore-current-modi|ignore-current-modif|ignore-current-modifi|ignore-current-modifie|ignore-current-modified|image|image-down|image-insensitive|image-size|image-size-c|image-size-ch|image-size-cha|image-size-char|image-size-chars|image-size-p|image-size-pi|image-size-pix|image-size-pixe|image-size-pixel|image-size-pixels|image-up|immediate-display|implements|import|import-node|import-principal|in|in-handle|increment-exclusive-id|index|index-hint|index-info|index-infor|index-inform|index-informa|index-informat|index-informati|index-informatio|index-information|indexed-reposition|indicator|info|infor|inform|informa|informat|informati|informatio|information|inherit-bgc|inherit-bgco|inherit-bgcol|inherit-bgcolo|inherit-bgcolor|inherit-color-mode|inherit-fgc|inherit-fgco|inherit-fgcol|inherit-fgcolo|inherit-fgcolor|inherits|init|initial|initial-dir|initial-filter|initialize|initialize-document-type|initiate|inner|inner-chars|inner-lines|input|input-o|input-ou|input-out|input-outp|input-outpu|input-output|input-value|insert|insert-attribute|insert-b|insert-ba|insert-bac|insert-back|insert-backt|insert-backta|insert-backtab|insert-before|insert-file|insert-row|insert-string|insert-t|insert-ta|insert-tab|instantiating-procedure|int64|int|inte|integ|intege|integer|interface|internal-entries|interval|into|invoke|is|is-attr|is-attr-|is-attr-s|is-attr-sp|is-attr-spa|is-attr-spac|is-attr-space|is-clas|is-class|is-codepage-fixed|is-column-codepage|is-db-multi-tenant|is-json|is-lead-byte|is-multi-tenant|is-open|is-parameter-set|is-partitione|is-partitioned|is-row-selected|is-selected|is-xml|iso-date|item|items-per-row|join|join-by-sqldb|join-on-select|kblabel|keep-connection-open|keep-frame-z|keep-frame-z-|keep-frame-z-o|keep-frame-z-or|keep-frame-z-ord|keep-frame-z-orde|keep-frame-z-order|keep-messages|keep-security-cache|keep-tab-order|key|key-code|key-func|key-funct|key-functi|key-functio|key-function|key-label|keycode|keyfunc|keyfunct|keyfuncti|keyfunctio|keyfunction|keylabel|keys|keyword|keyword-all|label|label-bgc|label-bgco|label-bgcol|label-bgcolo|label-bgcolor|label-dc|label-dco|label-dcol|label-dcolo|label-dcolor|label-fgc|label-fgco|label-fgcol|label-fgcolo|label-fgcolor|label-font|label-pfc|label-pfco|label-pfcol|label-pfcolo|label-pfcolor|labels|labels-have-colons|landscape|language|languages|large|large-to-small|last|last-async|last-async-|last-async-r|last-async-re|last-async-req|last-async-requ|last-async-reque|last-async-reques|last-async-request|last-batch|last-child|last-even|last-event|last-form|last-key|last-object|last-of|last-proce|last-proced|last-procedu|last-procedur|last-procedure|last-serv|last-serve|last-server|last-server-socket|last-socket|last-tab-i|last-tab-it|last-tab-ite|last-tab-item|lastkey|lc|ldbname|le|leading|leak-detection|leave|left|left-align|left-aligne|left-aligned|left-trim|length|library|library-calling-convention|like|like-sequential|line|line-count|line-counte|line-counter|list-events|list-item-pairs|list-items|list-property-names|list-query-attrs|list-set-attrs|list-widgets|listi|listin|listing|listings|literal-question|little-endian|load|load-domains|load-from|load-icon|load-image|load-image-down|load-image-insensitive|load-image-up|load-mouse-p|load-mouse-po|load-mouse-poi|load-mouse-poin|load-mouse-point|load-mouse-pointe|load-mouse-pointer|load-picture|load-result-into|load-small-icon|lob-dir|local-host|local-name|local-port|local-version-info|locator-column-number|locator-line-number|locator-public-id|locator-system-id|locator-type|lock-registration|locked|log|log-audit-event|log-entry-types|log-id|log-manager|log-threshold|logfile-name|logging-level|logical|login-expiration-timestamp|login-host|login-state|logout|long|longch|longcha|longchar|longchar-to-node-value|lookahead|lookup|lower|lt|machine-class|mandatory|manual-highlight|map|margin-extra|margin-height|margin-height-c|margin-height-ch|margin-height-cha|margin-height-char|margin-height-chars|margin-height-p|margin-height-pi|margin-height-pix|margin-height-pixe|margin-height-pixel|margin-height-pixels|margin-width|margin-width-c|margin-width-ch|margin-width-cha|margin-width-char|margin-width-chars|margin-width-p|margin-width-pi|margin-width-pix|margin-width-pixe|margin-width-pixel|margin-width-pixels|mark-new|mark-row-state|matches|max|max-button|max-chars|max-data-guess|max-height|max-height-c|max-height-ch|max-height-cha|max-height-char|max-height-chars|max-height-p|max-height-pi|max-height-pix|max-height-pixe|max-height-pixel|max-height-pixels|max-rows|max-size|max-val|max-valu|max-value|max-width|max-width-c|max-width-ch|max-width-cha|max-width-char|max-width-chars|max-width-p|max-width-pi|max-width-pix|max-width-pixe|max-width-pixel|max-width-pixels|maximize|maximum|maximum-level|md5-digest|md5-value|member|memptr|memptr-to-node-value|menu|menu-bar|menu-item|menu-k|menu-ke|menu-key|menu-m|menu-mo|menu-mou|menu-mous|menu-mouse|menubar|merge-by-field|merge-changes|merge-row-changes|message|message-area|message-area-font|message-area-msg|message-digest|message-line|message-lines|method|min-button|min-column-width-c|min-column-width-ch|min-column-width-cha|min-column-width-char|min-column-width-chars|min-column-width-p|min-column-width-pi|min-column-width-pix|min-column-width-pixe|min-column-width-pixel|min-column-width-pixels|min-height|min-height-c|min-height-ch|min-height-cha|min-height-char|min-height-chars|min-height-p|min-height-pi|min-height-pix|min-height-pixe|min-height-pixel|min-height-pixels|min-schema-marshal|min-schema-marshall|min-size|min-val|min-valu|min-value|min-width|min-width-c|min-width-ch|min-width-cha|min-width-char|min-width-chars|min-width-p|min-width-pi|min-width-pix|min-width-pixe|min-width-pixel|min-width-pixels|min|mini|minim|minimu|minimum|mod|modified|modulo|month|mouse|mouse-p|mouse-po|mouse-poi|mouse-poin|mouse-point|mouse-pointe|mouse-pointer|movable|move-after|move-after-|move-after-t|move-after-ta|move-after-tab|move-after-tab-|move-after-tab-i|move-after-tab-it|move-after-tab-ite|move-after-tab-item|move-befor|move-before|move-before-|move-before-t|move-before-ta|move-before-tab|move-before-tab-|move-before-tab-i|move-before-tab-it|move-before-tab-ite|move-before-tab-item|move-col|move-colu|move-colum|move-column|move-to-b|move-to-bo|move-to-bot|move-to-bott|move-to-botto|move-to-bottom|move-to-eof|move-to-t|move-to-to|move-to-top|mpe|mtime|multi-compile|multiple|multiple-key|multitasking-interval|must-exist|must-understand|name|namespace-prefix|namespace-uri|native|ne|needs-appserver-prompt|needs-prompt|nested|new|new-instance|new-row|next|next-col|next-colu|next-colum|next-column|next-prompt|next-rowid|next-sibling|next-tab-ite|next-tab-item|next-value|no|no-apply|no-array-m|no-array-me|no-array-mes|no-array-mess|no-array-messa|no-array-messag|no-array-message|no-assign|no-attr|no-attr-l|no-attr-li|no-attr-lis|no-attr-list|no-attr-s|no-attr-sp|no-attr-spa|no-attr-spac|no-attr-space|no-auto-tri|no-auto-trim|no-auto-validate|no-bind-where|no-box|no-column-sc|no-column-scr|no-column-scro|no-column-scrol|no-column-scroll|no-column-scrolli|no-column-scrollin|no-column-scrolling|no-console|no-convert|no-convert-3d|no-convert-3d-|no-convert-3d-c|no-convert-3d-co|no-convert-3d-col|no-convert-3d-colo|no-convert-3d-color|no-convert-3d-colors|no-current-value|no-debug|no-drag|no-echo|no-empty-space|no-error|no-f|no-fi|no-fil|no-fill|no-firehose-cursor|no-focus|no-help|no-hide|no-index-hint|no-inherit-bgc|no-inherit-bgco|no-inherit-bgcol|no-inherit-bgcolo|no-inherit-bgcolor|no-inherit-fgc|no-inherit-fgco|no-inherit-fgcol|no-inherit-fgcolo|no-inherit-fgcolor|no-join-by-sqldb|no-label|no-labels|no-lobs|no-lock|no-lookahead|no-map|no-mes|no-mess|no-messa|no-messag|no-message|no-pause|no-prefe|no-prefet|no-prefetc|no-prefetch|no-query-o|no-query-or|no-query-ord|no-query-orde|no-query-order|no-query-order-|no-query-order-a|no-query-order-ad|no-query-order-add|no-query-order-adde|no-query-order-added|no-query-u|no-query-un|no-query-uni|no-query-uniq|no-query-uniqu|no-query-unique|no-query-unique-|no-query-unique-a|no-query-unique-ad|no-query-unique-add|no-query-unique-adde|no-query-unique-added|no-return-val|no-return-valu|no-return-value|no-row-markers|no-schema-marshal|no-schema-marshall|no-scrollbar-v|no-scrollbar-ve|no-scrollbar-ver|no-scrollbar-vert|no-scrollbar-verti|no-scrollbar-vertic|no-scrollbar-vertica|no-scrollbar-vertical|no-scrolling|no-separate-connection|no-separators|no-tab|no-tab-|no-tab-s|no-tab-st|no-tab-sto|no-tab-stop|no-und|no-unde|no-under|no-underl|no-underli|no-underlin|no-underline|no-undo|no-val|no-vali|no-valid|no-valida|no-validat|no-validate|no-wait|no-word-wrap|node-type|node-value|node-value-to-longchar|node-value-to-memptr|nonamespace-schema-location|none|normalize|not|not-active|now|null|num-ali|num-alia|num-alias|num-aliase|num-aliases|num-buffers|num-but|num-butt|num-butto|num-button|num-buttons|num-child-relations|num-children|num-col|num-colu|num-colum|num-column|num-columns|num-copies|num-dbs|num-dropped-files|num-entries|num-fields|num-formats|num-header-entries|num-items|num-iterations|num-lines|num-locked-col|num-locked-colu|num-locked-colum|num-locked-column|num-locked-columns|num-log-files|num-messages|num-parameters|num-references|num-relations|num-repl|num-repla|num-replac|num-replace|num-replaced|num-results|num-selected|num-selected-rows|num-selected-widgets|num-source-buffers|num-tabs|num-to-retain|num-top-buffers|num-visible-col|num-visible-colu|num-visible-colum|num-visible-column|num-visible-columns|numeric|numeric-dec|numeric-deci|numeric-decim|numeric-decima|numeric-decimal|numeric-decimal-|numeric-decimal-p|numeric-decimal-po|numeric-decimal-poi|numeric-decimal-poin|numeric-decimal-point|numeric-f|numeric-fo|numeric-for|numeric-form|numeric-forma|numeric-format|numeric-sep|numeric-sepa|numeric-separ|numeric-separa|numeric-separat|numeric-separato|numeric-separator|object|octet_length|of|off|ok|ok-cancel|old|ole-invoke-loca|ole-invoke-local|ole-invoke-locale|ole-names-loca|ole-names-local|ole-names-locale|on|on-frame|on-frame-|on-frame-b|on-frame-bo|on-frame-bor|on-frame-bord|on-frame-borde|on-frame-border|open|opsys|option|or|ordered-join|ordinal|orientation|origin-handle|origin-rowid|os-append|os-command|os-copy|os-create-dir|os-delete|os-dir|os-drive|os-drives|os-error|os-getenv|os-rename|os2|os400|otherwise|outer|outer-join|output|overlay|override|owner|owner-document|page|page-bot|page-bott|page-botto|page-bottom|page-num|page-numb|page-numbe|page-number|page-size|page-top|page-wid|page-widt|page-width|paged|param|parame|paramet|paramete|parameter|parent|parent-buffer|parent-fields-after|parent-fields-before|parent-id-field|parent-id-relation|parent-rel|parent-rela|parent-relat|parent-relati|parent-relatio|parent-relation|parse-status|partial-key|pascal|password-field|pathname|pause|pbe-hash-alg|pbe-hash-algo|pbe-hash-algor|pbe-hash-algori|pbe-hash-algorit|pbe-hash-algorith|pbe-hash-algorithm|pbe-key-rounds|pdbname|perf|perfo|perfor|perform|performa|performan|performanc|performance|persist|persiste|persisten|persistent|persistent-cache-disabled|persistent-procedure|pfc|pfco|pfcol|pfcolo|pfcolor|pixels|pixels-per-col|pixels-per-colu|pixels-per-colum|pixels-per-column|pixels-per-row|popup-m|popup-me|popup-men|popup-menu|popup-o|popup-on|popup-onl|popup-only|portrait|position|precision|prefer-dataset|prepare-string|prepared|preproc|preproce|preproces|preprocess|presel|presele|preselec|preselect|prev|prev-col|prev-colu|prev-colum|prev-column|prev-sibling|prev-tab-i|prev-tab-it|prev-tab-ite|prev-tab-item|primary|primary-passphrase|printer|printer-control-handle|printer-hdc|printer-name|printer-port|printer-setup|private|private-d|private-da|private-dat|private-data|privileges|proc-ha|proc-han|proc-hand|proc-handl|proc-handle|proc-st|proc-sta|proc-stat|proc-statu|proc-status|proce|proced|procedu|procedur|procedure|procedure-call-type|procedure-name|procedure-type|process|process-architecture|profile-file|profiler|profiling|program-name|progress|progress-s|progress-so|progress-sou|progress-sour|progress-sourc|progress-source|prompt|prompt-f|prompt-fo|prompt-for|promsgs|propath|property|protected|provers|proversi|proversio|proversion|proxy|proxy-password|proxy-userid|public|public-id|publish|published-events|put|put-bits|put-byte|put-bytes|put-double|put-float|put-int64|put-key-val|put-key-valu|put-key-value|put-long|put-short|put-string|put-unsigned-long|put-unsigned-short|putbyte|qualified-user-id|query|query-close|query-off-end|query-open|query-prepare|query-tuning|question|quit|quoter|r-index|radio-buttons|radio-set|random|raw|raw-transfer|rcode-info|rcode-infor|rcode-inform|rcode-informa|rcode-informat|rcode-informati|rcode-informatio|rcode-information|read|read-available|read-exact-num|read-file|read-json|read-only|read-xml|read-xmlschema|readkey|real|recid|record-len|record-leng|record-lengt|record-length|rect|recta|rectan|rectang|rectangl|rectangle|recursive|reference-only|refresh|refresh-audit-policy|refreshable|register-domain|reinstate|reject-changes|reject-row-changes|rejected|relation-fi|relation-fie|relation-fiel|relation-field|relation-fields|relations-active|release|remote|remote-host|remote-port|remove-attribute|remove-child|remove-events-proc|remove-events-proce|remove-events-proced|remove-events-procedu|remove-events-procedur|remove-events-procedure|remove-super-proc|remove-super-proce|remove-super-proced|remove-super-procedu|remove-super-procedur|remove-super-procedure|repeat|replace|replace-child|replace-selection-text|replication-create|replication-delete|replication-write|reposition|reposition-back|reposition-backw|reposition-backwa|reposition-backwar|reposition-backward|reposition-backwards|reposition-forw|reposition-forwa|reposition-forwar|reposition-forward|reposition-forwards|reposition-parent-rel|reposition-parent-rela|reposition-parent-relat|reposition-parent-relati|reposition-parent-relatio|reposition-parent-relation|reposition-to-row|reposition-to-rowid|request|request-info|reset|resiza|resizab|resizabl|resizable|resize|response-info|restart-row|restart-rowid|result|retain|retain-s|retain-sh|retain-sha|retain-shap|retain-shape|retry|retry-cancel|return|return-ins|return-inse|return-inser|return-insert|return-inserte|return-inserted|return-to-start-di|return-to-start-dir|return-val|return-valu|return-value|return-value-data-type|return-value-dll-type|returns|reverse-from|revert|revoke|rgb-v|rgb-va|rgb-val|rgb-valu|rgb-value|right|right-align|right-aligne|right-aligned|right-trim|role|roles|round|rounded|routine-level|row|row-created|row-deleted|row-height|row-height-c|row-height-ch|row-height-cha|row-height-char|row-height-chars|row-height-p|row-height-pi|row-height-pix|row-height-pixe|row-height-pixel|row-height-pixels|row-ma|row-mar|row-mark|row-marke|row-marker|row-markers|row-modified|row-of|row-resizable|row-state|row-unmodified|rowid|rule|rule-row|rule-y|run|run-proc|run-proce|run-proced|run-procedu|run-procedur|run-procedure|save|save-as|save-file|save-row-changes|save-where-string|sax-attributes|sax-comple|sax-complet|sax-complete|sax-parse|sax-parse-first|sax-parse-next|sax-parser-error|sax-reader|sax-running|sax-uninitialized|sax-write-begin|sax-write-complete|sax-write-content|sax-write-element|sax-write-error|sax-write-idle|sax-write-tag|sax-writer|sax-xml|schema|schema-change|schema-location|schema-marshal|schema-path|screen|screen-io|screen-lines|screen-val|screen-valu|screen-value|scroll|scroll-bars|scroll-to-current-row|scroll-to-i|scroll-to-it|scroll-to-ite|scroll-to-item|scroll-to-selected-row|scrollable|scrollbar-h|scrollbar-ho|scrollbar-hor|scrollbar-hori|scrollbar-horiz|scrollbar-horizo|scrollbar-horizon|scrollbar-horizont|scrollbar-horizonta|scrollbar-horizontal|scrollbar-v|scrollbar-ve|scrollbar-ver|scrollbar-vert|scrollbar-verti|scrollbar-vertic|scrollbar-vertica|scrollbar-vertical|scrolled-row-pos|scrolled-row-posi|scrolled-row-posit|scrolled-row-positi|scrolled-row-positio|scrolled-row-position|scrolling|sdbname|seal|seal-timestamp|search|search-self|search-target|section|security-policy|seek|select|select-all|select-focused-row|select-next-row|select-on-join|select-prev-row|select-repositioned-row|select-row|selectable|selected|selected-items|selection-end|selection-list|selection-start|selection-text|self|send|sensitive|separate-connection|separator-fgc|separator-fgco|separator-fgcol|separator-fgcolo|separator-fgcolor|separators|serializable|serialize-hidden|serialize-name|serialize-row|server|server-connection-bo|server-connection-bou|server-connection-boun|server-connection-bound|server-connection-bound-re|server-connection-bound-req|server-connection-bound-requ|server-connection-bound-reque|server-connection-bound-reques|server-connection-bound-request|server-connection-co|server-connection-con|server-connection-cont|server-connection-conte|server-connection-contex|server-connection-context|server-connection-id|server-operating-mode|server-socket|session|session-end|session-id|set|set-actor|set-appl-context|set-attr-call-type|set-attribute|set-attribute-node|set-blue|set-blue-|set-blue-v|set-blue-va|set-blue-val|set-blue-valu|set-blue-value|set-break|set-buffers|set-byte-order|set-callback|set-callback-procedure|set-cell-focus|set-client|set-commit|set-connect-procedure|set-contents|set-db-client|set-db-logging|set-dynamic|set-effective-tenant|set-event-manager-option|set-green|set-green-|set-green-v|set-green-va|set-green-val|set-green-valu|set-green-value|set-input-source|set-must-understand|set-node|set-numeric-form|set-numeric-forma|set-numeric-format|set-option|set-output-destination|set-parameter|set-pointer-val|set-pointer-valu|set-pointer-value|set-property|set-read-response-procedure|set-red|set-red-|set-red-v|set-red-va|set-red-val|set-red-valu|set-red-value|set-repositioned-row|set-rgb|set-rgb-|set-rgb-v|set-rgb-va|set-rgb-val|set-rgb-valu|set-rgb-value|set-role|set-rollback|set-selection|set-serialized|set-size|set-socket-option|set-sort-arrow|set-state|set-wait|set-wait-|set-wait-s|set-wait-st|set-wait-sta|set-wait-stat|set-wait-state|setuser|setuseri|setuserid|sha1-digest|share|share-|share-l|share-lo|share-loc|share-lock|shared|short|show-in-task|show-in-taskb|show-in-taskba|show-in-taskbar|show-stat|show-stats|side-lab|side-labe|side-label|side-label-h|side-label-ha|side-label-han|side-label-hand|side-label-handl|side-label-handle|side-labels|signature|silent|simple|single|single-character|single-run|singleton|size|size-c|size-ch|size-cha|size-char|size-chars|size-p|size-pi|size-pix|size-pixe|size-pixel|size-pixels|skip|skip-deleted-rec|skip-deleted-reco|skip-deleted-recor|skip-deleted-record|skip-group-duplicates|skip-schema-check|slider|small-icon|small-title|smallint|soap-fault|soap-fault-actor|soap-fault-code|soap-fault-detail|soap-fault-misunderstood-header|soap-fault-node|soap-fault-role|soap-fault-string|soap-fault-subcode|soap-header|soap-header-entryref|soap-version|socket|some|sort|sort-ascending|sort-number|source|source-procedure|space|sql|sqrt|ssl-server-name|standalone|start|start-document|start-element|start-mem-check|starting|startup-parameters|state-detail|static|statistics|status|status-area|status-area-font|status-area-msg|stdcall|stomp-detection|stomp-frequency|stop|stop-after|stop-mem-check|stop-parsing|stoppe|stopped|stored-proc|stored-proce|stored-proced|stored-procedu|stored-procedur|stored-procedure|stream|stream-handle|stream-io|stretch-to-fit|strict|strict-entity-resolution|string|string-value|string-xref|sub-ave|sub-aver|sub-avera|sub-averag|sub-average|sub-count|sub-max|sub-maxi|sub-maxim|sub-maximu|sub-maximum|sub-menu|sub-menu-help|sub-min|sub-mini|sub-minim|sub-minimu|sub-minimum|sub-total|subscribe|subst|substi|substit|substitu|substitut|substitute|substr|substri|substrin|substring|subtype|sum|summary|super|super-proc|super-proce|super-proced|super-procedu|super-procedur|super-procedure|super-procedures|suppress-namespace-processing|suppress-w|suppress-wa|suppress-war|suppress-warn|suppress-warni|suppress-warnin|suppress-warning|suppress-warnings|suppress-warnings-list|suspend|symmetric-encryption-algorithm|symmetric-encryption-iv|symmetric-encryption-key|symmetric-support|synchronize|system-alert|system-alert-|system-alert-b|system-alert-bo|system-alert-box|system-alert-boxe|system-alert-boxes|system-dialog|system-help|system-id|tab-position|tab-stop|table|table-crc-list|table-handle|table-list|table-num|table-numb|table-numbe|table-number|table-scan|target|target-procedure|temp-dir|temp-dire|temp-direc|temp-direct|temp-directo|temp-director|temp-directory|temp-table|temp-table-prepar|temp-table-prepare|tenant|tenant-id|tenant-name|tenant-name-to-id|tenant-where|term|terminal|terminate|text|text-cursor|text-seg|text-seg-|text-seg-g|text-seg-gr|text-seg-gro|text-seg-grow|text-seg-growt|text-seg-growth|text-selected|then|this-object|this-procedure|thread-safe|three-d|through|throw|thru|tic-marks|time|time-source|timezone|title|title-bgc|title-bgco|title-bgcol|title-bgcolo|title-bgcolor|title-dc|title-dco|title-dcol|title-dcolo|title-dcolor|title-fgc|title-fgco|title-fgcol|title-fgcolo|title-fgcolor|title-fo|title-fon|title-font|to|to-rowid|today|toggle-box|tooltip|tooltips|top|top-nav-query|top-only|topic|total|trace-filter|tracing|tracking-changes|trailing|trans|trans-init-proc|trans-init-proce|trans-init-proced|trans-init-procedu|trans-init-procedur|trans-init-procedure|transact|transacti|transactio|transaction|transaction-mode|transpar|transpare|transparen|transparent|trigger|triggers|trim|true|trunc|trunca|truncat|truncate|ttcodepage|type|type-of|unbox|unbuff|unbuffe|unbuffer|unbuffere|unbuffered|underl|underli|underlin|underline|undo|undo-throw-scope|unform|unforma|unformat|unformatt|unformatte|unformatted|union|unique|unique-id|unique-match|unix|unless-hidden|unload|unsigned-byte|unsigned-int64|unsigned-integer|unsigned-long|unsigned-short|unsubscribe|up|update|update-attribute|upper|url|url-decode|url-encode|url-password|url-userid|use|use-dic|use-dict|use-dict-|use-dict-e|use-dict-ex|use-dict-exp|use-dict-exps|use-filename|use-index|use-revvideo|use-text|use-underline|use-widget-pool|user|user-data|user-id|userid|using|utc-offset|v6display|v6frame|valid-event|valid-handle|valid-object|validate|validate-expressio|validate-expression|validate-message|validate-seal|validate-xml|validation-enabled|value|values|var|vari|varia|variab|variabl|variable|verb|verbo|verbos|verbose|version|vert|verti|vertic|vertica|vertical|view|view-as|view-first-column-on-reopen|virtual-height|virtual-height-c|virtual-height-ch|virtual-height-cha|virtual-height-char|virtual-height-chars|virtual-height-p|virtual-height-pi|virtual-height-pix|virtual-height-pixe|virtual-height-pixel|virtual-height-pixels|virtual-width|virtual-width-c|virtual-width-ch|virtual-width-cha|virtual-width-char|virtual-width-chars|virtual-width-p|virtual-width-pi|virtual-width-pix|virtual-width-pixe|virtual-width-pixel|virtual-width-pixels|visible|vms|void|wait|wait-for|warning|wc-admin-app|web-con|web-cont|web-conte|web-contex|web-context|weekday|when|where|where-string|while|widget|widget-e|widget-en|widget-ent|widget-ente|widget-enter|widget-h|widget-ha|widget-han|widget-hand|widget-handl|widget-handle|widget-id|widget-l|widget-le|widget-lea|widget-leav|widget-leave|widget-pool|width|width-c|width-ch|width-cha|width-char|width-chars|width-p|width-pi|width-pix|width-pixe|width-pixel|width-pixels|window|window-delayed-min|window-delayed-mini|window-delayed-minim|window-delayed-minimi|window-delayed-minimiz|window-delayed-minimize|window-maxim|window-maximi|window-maximiz|window-maximize|window-maximized|window-minim|window-minimi|window-minimiz|window-minimize|window-minimized|window-name|window-normal|window-sta|window-stat|window-state|window-sys|window-syst|window-syste|window-system|with|word-index|word-wrap|work-area-height-p|work-area-height-pi|work-area-height-pix|work-area-height-pixe|work-area-height-pixel|work-area-height-pixels|work-area-width-p|work-area-width-pi|work-area-width-pix|work-area-width-pixe|work-area-width-pixel|work-area-width-pixels|work-area-x|work-area-y|work-tab|work-tabl|work-table|workfile|write|write-cdata|write-characters|write-comment|write-data|write-data-element|write-empty-element|write-entity-ref|write-external-dtd|write-fragment|write-json|write-message|write-processing-instruction|write-status|write-xml|write-xmlschema|x|x-document|x-noderef|x-of|xcode|xcode-session-key|xml-data-type|xml-entity-expansion-limit|xml-node-name|xml-node-type|xml-schema-pat|xml-schema-path|xml-strict-entity-resolution|xml-suppress-namespace-processing|xor|xref|xref-xml|y|y-of|year|year-offset|yes|yes-no|yes-no-cancel|bell|backspace|tab|return|delete-character|delete|delete-char|del|go|help|insert-mode|end-error|end|endkey|error|get|put|recall|clear|new-line|delete-line|break-line|append-line|block|find|page-up|page-down|back-tab|cursor-up|up|cursor-down|down|cursor-left|left|cursor-right|right|home|stop|dos-end|unix-end|abort|stop-display|resume-display|right-end|left-end|choices|settings|reports|goto|scroll-left|scroll-right|insert-field|insert-field-data|insert-field-label|delete-field|insert-column|delete-column|pick|pick-both|pick-area|cancel-pick|move|top-column|bottom-column|main-menu|options|entry|leave|choose|any-key|any-printable|next-frame|deselection|deselect|selection|select|selection-extend|deselection-extend|select-extend|deselect-extend|start-move|end-move|start-resize|end-resize|start-box-selection|end-box-selection|dismiss-menu|value-changed|focus-in|window-close|menu-drop|cut|copy|paste|default-action|start-extend-box-selection|empty-selection|next-word|prev-word|delete-word|delete-end-line|open-line-above|scroll-mode|enter-menubar|prev-frame|window-minimized|window-maximized|window-restored|default-pop-up|dde-notify|iteration-changed|data-refresh-line|data-refresh-page|off-home|off-end|out-of-data|scrollbar-drag|line-up|line-down|line-right|line-left|page-right|page-left|horiz-scroll-drag|horiz-home|horiz-end|window-resized|new|save-as|exit|find-next|find-previous|replace|compile|next-error|close|editor-tab|editor-backtab|page-right-text|row-display|row-entry|row-leave|parent-window-close|container-event|start-search|end-search|scroll-notify|web-notify|drop-file-notify|start-row-resize|end-row-resize|procedure-complete|read-response|connect|scroll-vertical|scroll-horizontal)(?![\\w-])",
      "name": "keyword.other.abl"
    }
  },
  "scopeName": "source.abl",
  "uuid": "075bb86e-03ea-4fea-bac0-e11b9dc73e03"
}